{
    "trainId": "BNSF-2020-07-07-40000001-SOXX-521027-TKCKKCS20210414",
    "number": "20210414",
    "yardCodeOrigin": "CYP -40090314",
    "yardCodeDestination": "CYP -4609045",
    "totalLength": 47256.5,
    "totalGrossWeight": 54.5,
    "etd": "2020-04-30T03:30:12Z",
    "details": [
        {
            "quantity": 60,
            "modelCode": "",
            "yardCodeOrigin": "CYP -40090314",
            "yardCodeDestination": "CYP -4609045",
            "senderCustomerCode": "",
            "industryCode": "",
            "yardBlockingCode": ""
        }
    ]
}