{
	"code": "CYPRESS_MAP_TEST_QA2",	
	"description": "QA MAP TEST2",	
	"mapDesign": "<?xml version=\"1.0\" encoding=\"utf-8\" standalone=\"no\"?><Artcore><CCP><patio name=\"TESTE MAPA \"><!--Patio gerado automaticamente pelo editor de mapas--></patio></CCP></Artcore>",
    "Yards": [
  {
    "id": 2,
    "code": "CYP -40090314",
    "mapId": 2,
    "startDescription": "Início",
    "endDescription": "Fim",
    "isPrincipal": true,
    "operationalCapacityLimit": null,
    "updateDate": "2020-11-10T16:45:48Z",
    "yard": {
        "id": 1,
        "name": "CYPRESS, MT",
        "code": "CYP -40090314",
        "description": "KCS-PRONAPADE, SL",
        "label": "PRONA"
    },
    "tracks": [
      {
        "id": 3,
        "code": "CYP -40090314-MNB",
        "description": "Bowl 18 - BATN",
        "lineType": "L",
        "seguiment": "A",
        "isFlipped": false,
        "interruptedFlag": "N",
        "usefullLength": 13661,
        "updateDate": "2020-11-10T16:45:48Z",
        "track": {
            "id": 8035,
            "code": "CYP -40090314-MNB",
            "name": "Standard Switching Track-MNB",
            "length": 1000.0,
            "yardCode": "CYP -40090314",
            "gaugeCode": "ST",
            "isWorkshop": false,
            "isIndustry": false,
            "isFlipped": false,
            "isBlocked": false
        }
      }
    ]
  }
]
}